[
  {
    "name": "SCP1",
    "description": "Simple fake scp item.",
    "ae": "SCP1",
    "ip": "localhost",
    "port": 104
  },
  {
    "name": "SCP2",
    "description": "Simple fake scp item.",
    "ae": "SCP2",
    "ip": "localhost",
    "port": 105
  }
]